Reproducible Research: Assignment One
…
Analysis

Steps taken each day

total_steps_by_day <- data_tidy %>% 
  group_by(date) %>% 
  summarize(steps_per_day = sum(steps)) %>% 
  print()

## # A tibble: 53 x 2
##    date       steps_per_day
##    <date>             <int>
##  1 2012-10-02           126
##  2 2012-10-03         11352
##  3 2012-10-04         12116
##  4 2012-10-05         13294
##  5 2012-10-06         15420
##  6 2012-10-07         11015
##  7 2012-10-09         12811
##  8 2012-10-10          9900
##  9 2012-10-11         10304
## 10 2012-10-12         17382
## #  with 43 more rows
…
stats_for_steps_by_day <- data_tidy %>% 
  filter(steps > 0) %>% 
  group_by(date) %>% 
  summarize(avg_steps_per_day = mean(steps), median_steps_per_day = as.integer(median(steps))) %>% 
  print()

## # A tibble: 53 x 3
##    date       avg_steps_per_day median_steps_per_day
##    <date>                 <dbl>                <int>
##  1 2012-10-02              63                     63
##  2 2012-10-03             140.                    61
##  3 2012-10-04             121.                    56
##  4 2012-10-05             155.                    66
##  5 2012-10-06             145.                    67
##  6 2012-10-07             102.                    52
##  7 2012-10-09             135.                    48
##  8 2012-10-10              95.2                   56
##  9 2012-10-11             137.                    35
## 10 2012-10-12             157.                    46
## #  with 43 more rows
…
